<define-tag pagetitle>DLA-2967-1 wireshark</define-tag>
<define-tag report_date>2022-3-31</define-tag>
<define-tag secrefs>CVE-2021-4181 CVE-2021-4184 CVE-2021-4185 CVE-2021-22191 CVE-2022-0581 CVE-2022-0582 CVE-2022-0583 CVE-2022-0585 CVE-2022-0586</define-tag>
<define-tag packages>wireshark</define-tag>
<define-tag isvulnerable>yes</define-tag>
<define-tag fixed>yes</define-tag>
<define-tag fixed-section>no</define-tag>

#use wml::debian::security

