<define-tag pagetitle>DLA-2882-1 sphinxsearch</define-tag>
<define-tag report_date>2022-1-17</define-tag>
<define-tag secrefs>CVE-2020-29050</define-tag>
<define-tag packages>sphinxsearch</define-tag>
<define-tag isvulnerable>yes</define-tag>
<define-tag fixed>yes</define-tag>
<define-tag fixed-section>no</define-tag>

#use wml::debian::security

