<define-tag pagetitle>DLA-2953-1 openssl1.0</define-tag>
<define-tag report_date>2022-03-17</define-tag>
<define-tag secrefs>CVE-2022-0778</define-tag>
<define-tag packages>openssl1.0</define-tag>
<define-tag isvulnerable>yes</define-tag>
<define-tag fixed>yes</define-tag>
<define-tag fixed-section>no</define-tag>

#use wml::debian::security

