<define-tag pagetitle>DSA-5025-1 tang</define-tag>
<define-tag report_date>2021-12-19</define-tag>
<define-tag secrefs>CVE-2021-4076</define-tag>
<define-tag packages>tang</define-tag>
<define-tag isvulnerable>yes</define-tag>
<define-tag fixed>yes</define-tag>
<define-tag fixed-section>no</define-tag>

#use wml::debian::security



</dl>
