<define-tag pagetitle>DSA-4624-1 evince</define-tag>
<define-tag report_date>2020-2-14</define-tag>
<define-tag secrefs>CVE-2017-1000159 CVE-2019-11459 CVE-2019-1010006 Bug#927820</define-tag>
<define-tag packages>evince</define-tag>
<define-tag isvulnerable>yes</define-tag>
<define-tag fixed>yes</define-tag>
<define-tag fixed-section>no</define-tag>

#use wml::debian::security



</dl>
