<define-tag pagetitle>DSA-4704-1 vlc</define-tag>
<define-tag report_date>2020-6-16</define-tag>
<define-tag secrefs>CVE-2020-13428</define-tag>
<define-tag packages>vlc</define-tag>
<define-tag isvulnerable>yes</define-tag>
<define-tag fixed>yes</define-tag>
<define-tag fixed-section>no</define-tag>

#use wml::debian::security



</dl>
