<define-tag pagetitle>DSA-4709-1 wordpress</define-tag>
<define-tag report_date>2020-6-23</define-tag>
<define-tag secrefs>CVE-2020-4047 CVE-2020-4048 CVE-2020-4049 CVE-2020-4050 Bug#962685</define-tag>
<define-tag packages>wordpress</define-tag>
<define-tag isvulnerable>yes</define-tag>
<define-tag fixed>yes</define-tag>
<define-tag fixed-section>no</define-tag>

#use wml::debian::security



</dl>
