<define-tag pagetitle>DSA-4772-1 httpcomponents-client</define-tag>
<define-tag report_date>2020-10-14</define-tag>
<define-tag secrefs>CVE-2020-13956</define-tag>
<define-tag packages>httpcomponents-client</define-tag>
<define-tag isvulnerable>yes</define-tag>
<define-tag fixed>yes</define-tag>
<define-tag fixed-section>no</define-tag>

#use wml::debian::security



</dl>
