<define-tag pagetitle>DSA-4817-1 php-pear</define-tag>
<define-tag report_date>2020-12-19</define-tag>
<define-tag secrefs>CVE-2020-28948 CVE-2020-28949 Bug#976108</define-tag>
<define-tag packages>php-pear</define-tag>
<define-tag isvulnerable>yes</define-tag>
<define-tag fixed>yes</define-tag>
<define-tag fixed-section>no</define-tag>

#use wml::debian::security



</dl>
