<define-tag pagetitle>DLA-2825-1 libmodbus</define-tag>
<define-tag report_date>2021-11-22</define-tag>
<define-tag secrefs>CVE-2019-14462 CVE-2019-14463</define-tag>
<define-tag packages>libmodbus</define-tag>
<define-tag isvulnerable>yes</define-tag>
<define-tag fixed>yes</define-tag>
<define-tag fixed-section>no</define-tag>

#use wml::debian::security

