<define-tag pagetitle>DLA-2604-1 dnsmasq</define-tag>
<define-tag report_date>2021-03-22</define-tag>
<define-tag secrefs>CVE-2020-25681 CVE-2020-25682 CVE-2020-25683 CVE-2020-25684 CVE-2020-25687</define-tag>
<define-tag packages>dnsmasq</define-tag>
<define-tag isvulnerable>yes</define-tag>
<define-tag fixed>yes</define-tag>
<define-tag fixed-section>no</define-tag>

#use wml::debian::security

