<define-tag pagetitle>DLA-1550-1 drupal7</define-tag>
<define-tag report_date>2018-10-19</define-tag>
<define-tag secrefs>Bug##911336 Bug##911337</define-tag>
<define-tag packages>drupal7</define-tag>
<define-tag isvulnerable>yes</define-tag>
<define-tag fixed>yes</define-tag>
<define-tag fixed-section>no</define-tag>

#use wml::debian::security

