<define-tag pagetitle>DSA-4572-1 slurm-llnl</define-tag>
<define-tag report_date>2019-11-18</define-tag>
<define-tag secrefs>CVE-2019-12838</define-tag>
<define-tag packages>slurm-llnl</define-tag>
<define-tag isvulnerable>yes</define-tag>
<define-tag fixed>yes</define-tag>
<define-tag fixed-section>no</define-tag>

#use wml::debian::security



</dl>
