<define-tag pagetitle>DLA-1789-2 intel-microcode</define-tag>
<define-tag report_date>2019-06-20</define-tag>
<define-tag secrefs>CVE-2018-12126 CVE-2018-12127 CVE-2018-12130 CVE-2019-11091 Bug#929073</define-tag>
<define-tag packages>intel-microcode</define-tag>
<define-tag isvulnerable>yes</define-tag>
<define-tag fixed>yes</define-tag>
<define-tag fixed-section>no</define-tag>

#use wml::debian::security

