<define-tag pagetitle>DLA-1755-1 graphicsmagick</define-tag>
<define-tag report_date>2019-4-14</define-tag>
<define-tag secrefs>CVE-2017-10799 CVE-2019-11006 CVE-2019-11007 CVE-2019-11008 CVE-2019-11009 CVE-2019-11010 Bug#927029</define-tag>
<define-tag packages>graphicsmagick</define-tag>
<define-tag isvulnerable>yes</define-tag>
<define-tag fixed>yes</define-tag>
<define-tag fixed-section>no</define-tag>

#use wml::debian::security

