<define-tag pagetitle>DLA-1646-1 qemu</define-tag>
<define-tag report_date>2019-1-29</define-tag>
<define-tag secrefs>CVE-2018-17958 CVE-2018-19364 CVE-2018-19489</define-tag>
<define-tag packages>qemu</define-tag>
<define-tag isvulnerable>yes</define-tag>
<define-tag fixed>yes</define-tag>
<define-tag fixed-section>no</define-tag>

#use wml::debian::security

